c 24
o -1.2031290531158447 0.07358600944280624 -3.221562385559082 0 1 155.88015123560527
o -1.2031290531158447 0.14956682920455933 -3.3912620544433594 0 1 155.88015123560527
o -1.2031290531158447 0.225547656416893 -3.5609614849090576 0 1 155.88015123560527
o -1.2031290531158447 0.3015285134315491 -3.730661153793335 0 1 155.88015123560527
o -1.2031290531158447 0.37750932574272156 -3.9003608226776123 0 1 155.88015123560527
o -1.2031290531158447 0.5482560396194458 -3.97257661819458 1 2 112.49994416698466
o -1.2031290531158447 0.7200356721878052 -3.9938344955444336 2 3 67.50004474360414
o -1.2031290531158447 0.8918153047561646 -3.9226810932159424 2 3 67.50004474360414
o -1.2031290531158447 0.9919471144676208 -3.7798800468444824 3 4 22.500013162296796
o -1.2031290531158447 1.0578763484954834 -3.6070611476898193 4 5 0.01978234102944043
o -1.2031290531158447 1.0578763484954834 -3.421128273010254 4 5 0.01978234102944043
o -1.2031290531158447 1.0578763484954834 -3.2351956367492676 4 5 0.01978234102944043
o -1.2031290531158447 1.0578763484954834 -3.049262523651123 4 5 0.01978234102944043
o -1.2031290531158447 1.0578763484954834 -2.8633298873901367 4 5 0.01978234102944043
o -1.2031290531158447 1.0578763484954834 -2.677396774291992 4 5 0.01978234102944043
o -1.2031290531158447 1.0578763484954834 -2.491464138031006 4 5 0.01978234102944043
o -1.2031290531158447 1.0578763484954834 -2.3055310249328613 4 5 0.01978234102944043
o -1.2031290531158447 1.0578763484954834 -2.119598388671875 4 5 0.01978234102944043
o -1.2031290531158447 1.0578763484954834 -1.9336655139923096 4 5 0.01978234102944043
o -1.2031290531158447 1.0578763484954834 -1.7477326393127441 4 5 0.01978234102944043
o -1.2031290531158447 1.0578763484954834 -1.5617997646331787 4 5 0.01978234102944043
o -1.2031290531158447 1.0578763484954834 -1.3758668899536133 4 5 0.01978234102944043
o -1.2031290531158447 1.0578763484954834 -1.1899340152740479 4 5 0.01978234102944043
o -1.2031290531158447 1.0578763484954834 -1.0040011405944824 4 5 0.01978234102944043
o -1.2031290531158447 1.0578763484954834 -0.818068265914917 4 5 0.01978234102944043
o -1.2031290531158447 1.0578763484954834 -0.6321353912353516 4 5 0.01978234102944043
o -1.2031290531158447 1.0578763484954834 -0.44620251655578613 4 5 0.01978234102944043
o -1.2031290531158447 1.0578763484954834 -0.2602694034576416 4 5 0.01978234102944043
o -1.2031290531158447 1.0578763484954834 -0.07433652877807617 4 5 0.01978234102944043
o -1.2031290531158447 1.0578763484954834 0.11159634590148926 4 5 0.01978234102944043
o -1.2031290531158447 1.0578763484954834 0.2975292205810547 4 5 0.01978234102944043
o -1.2031290531158447 1.0578763484954834 0.483461856842041 4 5 0.01978234102944043
o -1.2031290531158447 1.0578763484954834 0.6693944931030273 4 5 0.01978234102944043
o -1.2031290531158447 1.0578763484954834 0.8553276062011719 4 5 0.01978234102944043
o -1.2031290531158447 1.0578763484954834 1.0412602424621582 4 5 0.01978234102944043
o -1.2031290531158447 1.0578763484954834 1.2271933555603027 4 5 0.01978234102944043
o -1.2031290531158447 1.0578763484954834 1.413125991821289 4 5 0.01978234102944043
o -1.2031290531158447 1.0578763484954834 1.5990591049194336 4 5 0.01978234102944043
o -1.2031290531158447 1.0578763484954834 1.78499174118042 4 5 0.01978234102944043
o -1.2031290531158447 1.0578763484954834 1.9709248542785645 4 5 0.01978234102944043
o -1.2031290531158447 1.0578763484954834 2.156857490539551 4 5 0.01978234102944043
o -1.2031290531158447 0.9977954626083374 2.3324356079101562 5 6 -19.557853311484138
o -1.2031290531158447 0.8672351241111755 2.442744016647339 6 7 -67.5001482447407
o -1.2031290531158447 0.6954553723335266 2.4775562286376953 7 8 -112.49988317523899
o -1.2031290531158447 0.5236756801605225 2.406403064727783 7 8 -112.49988317523899
o -1.2031290531158447 0.4260019063949585 2.253190517425537 8 9 -151.668898406021
o -1.2031290531158447 0.3377644419670105 2.0895285606384277 8 9 -151.668898406021
o -1.2031290531158447 0.2495270073413849 1.9258668422698975 8 9 -151.668898406021
o -1.2031290531158447 0.16128957271575928 1.7622051239013672 8 9 -151.668898406021
o -1.2031290531158447 0.07305213809013367 1.5985432863235474 8 9 -151.668898406021
o -1.2031290531158447 0.0429379902780056 1.4202111959457397 9 0 -179.98021765897056
o -1.2031290531158447 0.04293796792626381 1.2342783212661743 9 0 -179.98021765897056
o -1.2031290531158447 0.04293794929981232 1.0483454465866089 9 0 -179.98021765897056
o -1.2031290531158447 0.042937930673360825 0.8624125719070435 9 0 -179.98021765897056
o -1.2031290531158447 0.04293791204690933 0.676479697227478 9 0 -179.98021765897056
o -1.2031290531158447 0.04293789342045784 0.4905468225479126 9 0 -179.98021765897056
o -1.2031290531158447 0.04293787479400635 0.30461394786834717 9 0 -179.98021765897056
o -1.2031290531158447 0.042937856167554855 0.11868107318878174 9 0 -179.98021765897056
o -1.2031290531158447 0.042937833815813065 -0.06725180149078369 9 0 -179.98021765897056
o -1.2031290531158447 0.04293781518936157 -0.25318455696105957 9 0 -179.98021765897056
o -1.2031290531158447 0.04293779656291008 -0.43911755084991455 9 0 -179.98021765897056
o -1.2031290531158447 0.04293777793645859 -0.6250503063201904 9 0 -179.98021765897056
o -1.2031290531158447 0.042937759310007095 -0.8109831809997559 9 0 -179.98021765897056
o -1.2031290531158447 0.0429377406835556 -0.9969162940979004 9 0 -179.98021765897056
o -1.2031290531158447 0.04293772205710411 -1.1828489303588867 9 0 -179.98021765897056
o -1.2031290531158447 0.04293769970536232 -1.3687818050384521 9 0 -179.98021765897056
o -1.2031290531158447 0.04293768107891083 -1.5547149181365967 9 0 -179.98021765897056
o -1.2031290531158447 0.042937662452459335 -1.740647554397583 9 0 -179.98021765897056
o -1.2031290531158447 0.04293764382600784 -1.9265804290771484 9 0 -179.98021765897056
o -1.2031290531158447 0.04293762519955635 -2.112513303756714 9 0 -179.98021765897056
o -1.2031290531158447 0.04293760657310486 -2.2984461784362793 9 0 -179.98021765897056
o -1.2031290531158447 0.042937587946653366 -2.484379291534424 9 0 -179.98021765897056
o -1.2031290531158447 0.042937565594911575 -2.67031192779541 9 0 -179.98021765897056
o -1.2031290531158447 0.04293754696846008 -2.8562450408935547 9 0 -179.98021765897056
o -1.2031290531158447 0.04293752834200859 -3.042177677154541 9 0 -179.98021765897056
